…
## Use

First, load the {tidykids} package:

``` r
library(tidykids)
```

Then, type `tidykids` to load the data:

``` r
tidykids
#> # A tibble: 23,460 x 6
#>    state                variable year       raw   inf_adj inf_adj_perchild
#>    <chr>                <chr>    <chr>    <dbl>     <dbl>            <dbl>
#>  1 Alabama              PK12ed   1997   3271969  4665308.             3.93
#>  2 Alaska               PK12ed   1997   1042311  1486170              7.55
#>  3 Arizona              PK12ed   1997   3388165  4830986.             3.71
#>  4 Arkansas             PK12ed   1997   1960613  2795523              3.89
#>  5 California           PK12ed   1997  28708364 40933568              4.28
#>  6 Colorado             PK12ed   1997   3332994  4752320.             4.38
#>  7 Connecticut          PK12ed   1997   4014870  5724568.             6.70
#>  8 Delaware             PK12ed   1997    776825  1107629.             5.63
#>  9 District of Columbia PK12ed   1997    544051   775730.             6.11
#> 10 Florida              PK12ed   1997  11498394 16394885              4.45
#> # … with 23,450 more rows
```

  - `raw` refers to the raw amount
  - `inf_adj` refers to the amount transformed to be in 2016 dollars for
    each year
  - `inf_adj_per_child` refers to the amount transformed to be in 2016
    dollars for each year per child in $1000s

To see descriptions of the variables (also available
[here](https://datacatalog.urban.org/sites/default/files/data-dictionary-files/State-by-State%20Spending%20on%20Kids%20Data%20Dictionary%20File_0.xlsx)):

``` r
tidykids_data_dictionary
#> # A tibble: 23 x 4
#>    variable   measurement_unit allowed_values description                       
#>    <chr>      <chr>            <chr>          <chr>                             
#>  1 PK12ed     Numeric          0-             Public spending on elementary and…
#>  2 highered   Numeric          0-             Public spending on higher educati…
#>  3 edsubs     Numeric          0-             Public spending on education subs…
#>  4 edservs    Numeric          0-             Public spending on education spec…
#>  5 pell       Numeric          0-             Public spending on Pell Grants by…
#>  6 HeadStart… Numeric          0-             Federal spending on Head Start aw…
#>  7 TANFbasic  Numeric          -21820-        Public spending on TANF cash assi…
#>  8 othercash… Numeric          0-             Public spending on other cash ass…
#>  9 SNAP       Numeric          0-             Public spending on SNAP benefit p…
#> 10 socsec     Numeric          0-             Public spending on Social Securit…
#> # … with 13 more rows
```
…
